<svg xmlns="http://www.w3.org/2000/svg" width="18.087" height="20.671" viewBox="0 0 18.087 20.671">
  <path id="Icon_metro-organization" data-name="Icon metro-organization" d="M20,9.68H7.083A2.585,2.585,0,0,0,4.5,12.263v1.292a2.571,2.571,0,0,0,1.292,2.226v4.234h5.168V22.6h5.168V20.015h5.168V15.781a2.571,2.571,0,0,0,1.292-2.226V12.263A2.585,2.585,0,0,0,20,9.68ZM9.666,18.723H7.083V13.555H5.791V12.263a1.293,1.293,0,0,1,1.292-1.292h1.65a2.555,2.555,0,0,0-.358,1.292v2.584a2.571,2.571,0,0,0,1.292,2.226Zm6.46-2.584V13.555H14.834v7.752H12.25V13.555H10.958v2.584a1.292,1.292,0,0,1-1.292-1.292V12.263a1.293,1.293,0,0,1,1.292-1.292h5.168a1.292,1.292,0,0,1,1.292,1.292v2.584a1.291,1.291,0,0,1-1.292,1.292Zm5.168-2.584H20v5.168H17.418v-1.65a2.571,2.571,0,0,0,1.292-2.226V12.263a2.555,2.555,0,0,0-.358-1.292H20a1.292,1.292,0,0,1,1.292,1.292v1.292ZM10.629,8.335a3.827,3.827,0,0,0,5.826,0A2.58,2.58,0,1,0,17.31,4.93a3.865,3.865,0,0,0-7.535,0,2.586,2.586,0,1,0,.854,3.405ZM18.71,5.8A1.292,1.292,0,1,1,17.418,7.1,1.291,1.291,0,0,1,18.71,5.8ZM13.542,3.22A2.584,2.584,0,1,1,10.958,5.8,2.585,2.585,0,0,1,13.542,3.22ZM8.375,8.388A1.292,1.292,0,1,1,9.666,7.1,1.292,1.292,0,0,1,8.375,8.388Z" transform="translate(-4.499 -1.928)" fill="#a6b1c2"/>
</svg>
